…
```
## [1] 34786
```
There are 34,786 observations.

```r
deserts %>% 
  count(genus, species) %>% 
  arrange(n)
```

```
## # A tibble: 48 × 3
##    genus           species          n
##    <chr>           <chr>        <int>
##  1 Cnemidophorus   tigris           1
##  2 Cnemidophorus   uniparens        1
##  3 Crotalus        scutalatus       1
##  4 Crotalus        viridis          1
##  5 Sceloporus      clarki           1
##  6 Spermophilus    tereticaudus     1
##  7 Ammodramus      savannarum       2
##  8 Reithrodontomys <NA>             2
##  9 Zonotrichia     leucophrys       2
## 10 Lizard          <NA>             4
## # ℹ 38 more rows
```

```r
deserts %>% 
  count(genus, species) %>% 
  arrange(desc(n))
```

```
## # A tibble: 48 × 3
##    genus           species          n
##    <chr>           <chr>        <int>
##  1 Dipodomys       merriami     10596
##  2 Chaetodipus     penicillatus  3123
##  3 Dipodomys       ordii         3027
##  4 Chaetodipus     baileyi       2891
##  5 Reithrodontomys megalotis     2609
##  6 Dipodomys       spectabilis   2504
##  7 Onychomys       torridus      2249
##  8 Perognathus     flavus        1597
##  9 Peromyscus      eremicus      1299
## 10 Neotoma         albigula      1252
## # ℹ 38 more rows
```
…
9. Which two species have, on average, the highest weight? Once you have identified them, make a new column that is a ratio of `weight` to `hindfoot_length`. Make a plot that shows the range of this new ratio and fill by sex.


```r
deserts %>% 
  group_by(species) %>% 
  summarize(mean_weight=mean(weight, na.rm=T)) %>% 
  arrange(desc(mean_weight))
```

```
## # A tibble: 40 × 2
##    species      mean_weight
##    <chr>              <dbl>
##  1 albigula           159. 
##  2 spectabilis        120. 
##  3 spilosoma           93.5
##  4 hispidus            65.6
##  5 fulviventer         58.9
##  6 ochrognathus        55.4
##  7 ordii               48.9
##  8 merriami            43.2
##  9 baileyi             31.7
## 10 leucogaster         31.6
## # ℹ 30 more rows
```

```r
deserts <- deserts %>% 
  mutate(weight_to_hindfoot_length=weight/hindfoot_length)
```


```r
deserts %>% 
  count(weight_to_hindfoot_length) %>% 
  arrange(desc(weight_to_hindfoot_length))
```

```
## # A tibble: 1,831 × 2
##    weight_to_hindfoot_length     n
##                        <dbl> <int>
##  1                     15        1
##  2                      8.69     1
##  3                      8.48     1
##  4                      8.44     1
##  5                      8.30     1
##  6                      7.91     1
##  7                      7.88     1
##  8                      7.88     1
##  9                      7.85     2
## 10                      7.79     1
## # ℹ 1,821 more rows
```
…
