…
Problem 9. (5 points) Among the YNP wolf packs, which one has had the highest overall persistence `persisty1` for the years represented in the data? Look this pack up online and tell me what is unique about its behavior- specifically, what prey animals does this pack specialize on?  


```r
ynp %>% 
  group_by(pack) %>% 
  summarize(pack_persistence=sum(persisty1, na.rm=T)) %>% 
  arrange(desc(pack_persistence))
```

```
## # A tibble: 46 × 2
##    pack        pack_persistence
##    <chr>                  <int>
##  1 mollies                   26
##  2 cougar                    20
##  3 yelldelta                 18
##  4 druid                     13
##  5 leopold                   12
##  6 agate                     10
##  7 8mile                      9
##  8 canyon                     9
##  9 gibbon/mary                9
## 10 nezperce                   9
## # ℹ 36 more rows
```
…
