…
3. (3 points) Are there any "hotspots" for shark incidents in California? Make a plot that shows the total number of incidents per county. Which county has the highest number of incidents?


```r
sharks %>% 
  count(county) %>% 
  arrange(desc(n))
```

```
## # A tibble: 21 × 2
##    county              n
##    <chr>           <int>
##  1 San Diego          23
##  2 Santa Barbara      19
##  3 Humboldt           18
##  4 San Mateo          18
##  5 Marin              16
##  6 Monterey           15
##  7 Santa Cruz         15
##  8 Sonoma             15
##  9 San Luis Obispo    14
## 10 Los Angeles         9
## # ℹ 11 more rows
```
…
```r
sharks %>% 
  group_by(county) %>% 
  count(injury) %>% 
  pivot_wider(names_from = injury, values_from = n, names_prefix = "injury_") %>% 
  arrange(desc(injury_fatal))
```

```
## # A tibble: 21 × 5
## # Groups:   county [21]
##    county              injury_minor injury_none injury_major injury_fatal
##    <chr>                      <int>       <int>        <int>        <int>
##  1 San Luis Obispo                1           7            3            3
##  2 Monterey                       2           3            8            2
##  3 San Diego                      8           9            4            2
##  4 Santa Barbara                  6           9            2            2
##  5 Island - San Miguel            2          NA            2            1
##  6 Los Angeles                    6           2           NA            1
##  7 Mendocino                      1          NA            3            1
##  8 San Francisco                 NA           1           NA            1
##  9 San Mateo                      4          12            1            1
## 10 Santa Cruz                     3           8            3            1
## # ℹ 11 more rows
```
…
