…
4. Refocus the data only to include country, isscaap_taxonomic_group, asfis_species_name, asfis_species_number, year, catch.

```r
fisheries_tidy %>% 
  select(country, common_name, isscaap_taxonomic_group, asfis_species_name, asfis_species_number, year, catch)
```

```
## # A tibble: 376,771 × 7
##    country common_name                 isscaap_taxonomic_gr…¹ asfis_species_name
##    <fct>   <chr>                       <chr>                  <chr>             
##  1 Albania Angelsharks, sand devils n… Sharks, rays, chimaer… Squatinidae       
##  2 Albania Angelsharks, sand devils n… Sharks, rays, chimaer… Squatinidae       
##  3 Albania Angelsharks, sand devils n… Sharks, rays, chimaer… Squatinidae       
##  4 Albania Angelsharks, sand devils n… Sharks, rays, chimaer… Squatinidae       
##  5 Albania Angelsharks, sand devils n… Sharks, rays, chimaer… Squatinidae       
##  6 Albania Angelsharks, sand devils n… Sharks, rays, chimaer… Squatinidae       
##  7 Albania Angelsharks, sand devils n… Sharks, rays, chimaer… Squatinidae       
##  8 Albania Angelsharks, sand devils n… Sharks, rays, chimaer… Squatinidae       
##  9 Albania Angelsharks, sand devils n… Sharks, rays, chimaer… Squatinidae       
## 10 Albania Angelsharks, sand devils n… Sharks, rays, chimaer… Squatinidae       
## # ℹ 376,761 more rows
## # ℹ abbreviated name: ¹​isscaap_taxonomic_group
## # ℹ 3 more variables: asfis_species_number <fct>, year <dbl>, catch <dbl>
```
…
6. Which country had the largest overall catch in the year 2000?

```r
fisheries_tidy %>% 
  filter(year==2000) %>% 
    group_by(country) %>%
  summarize(overall_catch=sum(catch, na.rm=T),
            n=n()) %>% 
  arrange(desc(overall_catch))
```

```
## # A tibble: 193 × 3
##    country                  overall_catch     n
##    <fct>                            <dbl> <int>
##  1 China                            25899    93
##  2 Russian Federation               12181   192
##  3 United States of America         11762   438
##  4 Japan                             8510   241
##  5 Indonesia                         8341   140
##  6 Peru                              7443    54
##  7 Chile                             6906    91
##  8 India                             6351    98
##  9 Thailand                          6243   127
## 10 Korea, Republic of                6124   265
## # ℹ 183 more rows
```

7. Which country caught the most sardines (_Sardina pilchardus_) between the years 1990-2000?

```r
fisheries_tidy %>% 
  filter(between(year, 1990, 2000) & asfis_species_name=="Sardina pilchardus") %>% 
  group_by(country) %>% 
  summarize(sardines_caught=sum(catch, na.rm=T),
            n=n()) %>% 
  arrange(desc(sardines_caught))
```

```
## # A tibble: 37 × 3
##    country               sardines_caught     n
##    <fct>                           <dbl> <int>
##  1 Morocco                          7470    22
##  2 Spain                            3507    33
##  3 Russian Federation               1639    11
##  4 Ukraine                          1030    11
##  5 France                            966    25
##  6 Portugal                          818    22
##  7 Greece                            528    11
##  8 Italy                             507    11
##  9 Serbia and Montenegro             478     9
## 10 Denmark                           477    11
## # ℹ 27 more rows
```
…
9. Which species had the highest catch total between 2008-2012? (hint: Osteichthyes is not a species)


```r
fisheries_tidy %>% 
  filter(between(year, 2008, 2012), asfis_species_name!="Osteichthyes") %>% 
  group_by(asfis_species_name) %>% 
  summarize(catch_total=sum(catch, na.rm=T),
            n=n()) %>% 
  arrange(desc(catch_total))
```

```
## # A tibble: 1,471 × 3
##    asfis_species_name    catch_total     n
##    <chr>                       <dbl> <int>
##  1 Theragra chalcogramma       41075    35
##  2 Engraulis ringens           35523    14
##  3 Katsuwonus pelamis          32153   761
##  4 Trichiurus lepturus         30400   225
##  5 Clupea harengus             28527   115
##  6 Thunnus albacares           20119  1006
##  7 Scomber japonicus           14723   351
##  8 Gadus morhua                13253   176
##  9 Thunnus alalunga            12019   755
## 10 Natantia                    11984   314
## # ℹ 1,461 more rows
```
…
I wanted to find the least caught species over the entire time frame of the data set.


```r
fisheries_tidy %>% 
  filter(asfis_species_name!="Osteichthyes") %>% 
  group_by(asfis_species_name) %>% 
  summarize(species_catch_totals=sum(catch, na.rm=T),
            n=n()) %>% 
  arrange(species_catch_totals)
```

```
## # A tibble: 1,545 × 3
##    asfis_species_name        species_catch_totals     n
##    <chr>                                    <dbl> <int>
##  1 Acanthopagrus schlegeli                      0    24
##  2 Acipenser ruthenus                           0     1
##  3 Amphichthys cryptocentrus                    0    11
##  4 Aphanopus intermedius                        0     1
##  5 Aphareus rutilans                            0    13
##  6 Arca zebra                                   0     5
##  7 Asterias rubens                              0    18
##  8 Babylonia spirata                            0     9
##  9 Barbourisia rufa                             0     1
## 10 Bathyraja meridionalis                       0     2
## # ℹ 1,535 more rows
```
…
